{
    "KPackageStructure": "Plasma/Applet",
    "KPlugin": {
        "Authors": [
            {
                "Email": "aleixpol@kde.org",
                "Name": "Aleix Pol Gonzalez",
                "Name[ar]": "Aleix Pol Gonzalez",
                "Name[ast]": "Aleix Pol i Gonzàlez",
                "Name[az]": "Aleix Pol Gonzalez",
                "Name[be]": "Aleix Pol Gonzalez",
                "Name[bg]": "Aleix Pol Gonzalez",
                "Name[ca@valencia]": "Aleix Pol Gonzalez",
                "Name[ca]": "Aleix Pol Gonzalez",
                "Name[cs]": "Aleix Pol Gonzalez",
                "Name[da]": "Aleix Pol Gonzalez",
                "Name[de]": "Aleix Pol Gonzalez",
                "Name[en_GB]": "Aleix Pol Gonzalez",
                "Name[eo]": "Aleix Pol Gonzalez",
                "Name[es]": "Aleix Pol Gonzalez",
                "Name[et]": "Aleix Pol Gonzalez",
                "Name[eu]": "Aleix Pol Gonzalez",
                "Name[fi]": "Aleix Pol Gonzalez",
                "Name[fr]": "Aleix Pol Gonzalez",
                "Name[gl]": "Aleix Pol Gonzalez",
                "Name[hi]": "एलेक्स पोल गोंजालेज",
                "Name[hu]": "Aleix Pol Gonzalez",
                "Name[ia]": "Aleix Pol Gonzalez",
                "Name[id]": "Aleix Pol Gonzalez",
                "Name[is]": "Aleix Pol Gonzalez",
                "Name[it]": "Aleix Pol Gonzalez",
                "Name[ja]": "Aleix Pol Gonzalez",
                "Name[ka]": "Aleix Pol Gonzalez",
                "Name[ko]": "Aleix Pol Gonzalez",
                "Name[lt]": "Aleix Pol Gonzalez",
                "Name[nl]": "Aleix Pol Gonzalez",
                "Name[nn]": "Aleix Pol Gonzalez",
                "Name[pa]": "ਐਲਿਕਸ ਪੋਲ ਗੋਨਜ਼ਾਵੇਜ",
                "Name[pl]": "Aleix Pol Gonzalez",
                "Name[pt]": "Aleix Pol Gonzalez",
                "Name[pt_BR]": "Aleix Pol Gonzalez",
                "Name[ro]": "Aleix Pol Gonzalez",
                "Name[ru]": "Aleix Pol Gonzalez",
                "Name[sk]": "Aleix Pol Gonzalez",
                "Name[sl]": "Aleix Pol Gonzalez",
                "Name[sv]": "Aleix Pol Gonzalez",
                "Name[ta]": "அலேயிக்சு போல் கொன்ஸாலெசு",
                "Name[tr]": "Aleix Pol Gonzalez",
                "Name[uk]": "Aleix Pol Gonzalez",
                "Name[vi]": "Aleix Pol Gonzalez",
                "Name[x-test]": "xxAleix Pol Gonzalezxx",
                "Name[zh_CN]": "Aleix Pol Gonzalez",
                "Name[zh_TW]": "Aleix Pol Gonzalez"
            }
        ],
        "BugReportUrl": "https://bugs.kde.org/enter_bug.cgi?product=plasmashell&component=Input%20Method",
        "Category": "Accessibility",
        "Description": "Manage your Input Methods",
        "Description[ar]": "أدر طريقة إدخالك للنص",
        "Description[az]": "Daxiletmə üsulunu idarə edin",
        "Description[be]": "Кіраванне метадамі ўводу",
        "Description[bg]": "Управлявайте вашите методи за въвеждане",
        "Description[ca@valencia]": "Gestioneu els mètodes d'entrada",
        "Description[ca]": "Gestioneu els mètodes d'entrada",
        "Description[cs]": "Spravujte svoje metody vstupu",
        "Description[da]": "Administrér dine input-metoder",
        "Description[de]": "Eingabemethoden verwalten",
        "Description[en_GB]": "Manage your Input Methods",
        "Description[eo]": "Administru viajn Enigajn Metodojn",
        "Description[es]": "Gestión de métodos de entrada",
        "Description[eu]": "Kudeatu zure sarrerako metodoak",
        "Description[fi]": "Syötemenetelmien hallinta",
        "Description[fr]": "Gérer vos méthodes de saisie",
        "Description[gl]": "Xestione os seus métodos de entrada.",
        "Description[hi]": "आपके इनपुट विधियों का प्रबंधन करें",
        "Description[hu]": "Beviteli módok kezelése",
        "Description[ia]": "Gere tu methodos de insertar",
        "Description[id]": "Kelola Metode Input-mu",
        "Description[is]": "Stjórnaðu innsláttaraðferðum",
        "Description[it]": "Gestire i metodi di inserimento",
        "Description[ja]": "仮想キーボードを管理します",
        "Description[ka]": "შეტანის მეთოდების მორგება",
        "Description[ko]": "입력기 관리",
        "Description[lt]": "Tvarkyti įvesties metodus",
        "Description[nl]": "Uw invoermethoden beheren",
        "Description[nn]": "Handsam skrivemetodar",
        "Description[pa]": "ਆਪਣੇ ਇਨਪੁੱਟ ਢੰਗਾਂ ਦਾ ਇੰਤਜ਼ਾਮ ਕਰੋ",
        "Description[pl]": "Zarządzaj swoimi metodami wprowadzania",
        "Description[pt]": "Faça a Gestão dos seus Métodos de Entrada de Dados",
        "Description[pt_BR]": "Gerencia os seus métodos de entrada",
        "Description[ro]": "Gestionați metodele de introducere",
        "Description[ru]": "Настройка методов ввода",
        "Description[sk]": "Spravujte svoje metódy vstupu",
        "Description[sl]": "Upravlja z vašimi vhodnimi metodami",
        "Description[sv]": "Hantera dina inmatningsmetoder",
        "Description[ta]": "உள்ளீடு முறைகளை நிர்வகியுங்கள்",
        "Description[tr]": "Giriş yöntemlerinizi yönetin",
        "Description[uk]": "Керування вашими способами введення",
        "Description[vi]": "Quản lí các phương thức nhập",
        "Description[x-test]": "xxManage your Input Methodsxx",
        "Description[zh_CN]": "管理输入法",
        "Description[zh_TW]": "管理您的輸入法",
        "EnabledByDefault": true,
        "FormFactors": [
            "tablet",
            "handset",
            "desktop"
        ],
        "Icon": "input-keyboard-virtual",
        "Id": "org.kde.plasma.manage-inputmethod",
        "License": "GPL-2.0+",
        "Name": "Input Method",
        "Name[ar]": "طريقة الإدخال",
        "Name[az]": "Daxiletmə üsulu",
        "Name[be]": "Метад уводу",
        "Name[bg]": "Методи за въвеждане",
        "Name[ca@valencia]": "Mètode d'entrada",
        "Name[ca]": "Mètode d'entrada",
        "Name[cs]": "Metoda vstupu",
        "Name[da]": "Input-metode",
        "Name[de]": "Eingabemethoden",
        "Name[en_GB]": "Input Method",
        "Name[eo]": "Eniga Metodo",
        "Name[es]": "Método de entrada",
        "Name[et]": "Sisestusviis",
        "Name[eu]": "Sarrerako metodoa",
        "Name[fi]": "Syötemenetelmä",
        "Name[fr]": "Méthode de saisie",
        "Name[gl]": "Método de entrada",
        "Name[hi]": "इनपुट विधि",
        "Name[hsb]": "Metoda zapodawanja",
        "Name[hu]": "Beviteli mód",
        "Name[ia]": "Methodo de insertar",
        "Name[id]": "Metode Input",
        "Name[is]": "Innsláttaraðferð",
        "Name[it]": "Metodo di inserimento",
        "Name[ja]": "仮想キーボード",
        "Name[ka]": "შეტანის მეთოდი",
        "Name[ko]": "입력기",
        "Name[lt]": "Įvesties metodai",
        "Name[ml]": "നിവേശന രീതി",
        "Name[nl]": "Invoermethode",
        "Name[nn]": "Skrive­metode",
        "Name[pa]": "ਇਨਪੁ਼ੱਟ ਢੰਗ",
        "Name[pl]": "Metoda wprowadzania",
        "Name[pt]": "Método de Entrada",
        "Name[pt_BR]": "Método de entrada",
        "Name[ro]": "Metodă de introducere",
        "Name[ru]": "Метод ввода",
        "Name[sk]": "Metóda vstupu",
        "Name[sl]": "Vhodna metoda",
        "Name[sv]": "Inmatningsmetod",
        "Name[ta]": "உள்ளீடு முறை",
        "Name[tr]": "Giriş Yöntemi",
        "Name[uk]": "Спосіб введення",
        "Name[vi]": "Phương thức nhập",
        "Name[x-test]": "xxInput Methodxx",
        "Name[zh_CN]": "输入法",
        "Name[zh_TW]": "輸入法",
        "Version": "3.0",
        "Website": "https://www.kde.org/plasma-desktop"
    },
    "X-Plasma-API": "declarativeappletscript",
    "X-Plasma-MainScript": "ui/manage-inputmethod.qml",
    "X-Plasma-NotificationArea": "true",
    "X-Plasma-NotificationAreaCategory": "SystemServices"
}
