{
    "KPlugin": {
        "BugReportUrl": "https://bugs.kde.org/enter_bug.cgi?product=systemsettings&component=kcm_soundtheme",
        "Description": "Select a Sound Theme for Notifications",
        "Description[bg]": "Изберете звукова тема за Известия",
        "Description[ca@valencia]": "Seleccioneu un tema de so per a les notificacions",
        "Description[ca]": "Selecció d'un tema de so per a les notificacions",
        "Description[eo]": "Elekti Sonetoson por Atentigoj",
        "Description[es]": "Seleccionar un tema de sonido para las notificaciones",
        "Description[eu]": "Hautatu jakinarazpenetarako soinu-gai bat",
        "Description[fr]": "Sélectionner un thème sonore pour les notifications",
        "Description[ia]": "Selectiona un Thema de Sono per Notificationes",
        "Description[it]": "Seleziona un tema sonoro per le notifiche",
        "Description[ka]": "აირჩიეთ შეტყობინებების ხმის თემა",
        "Description[ko]": "알림 소리 테마 선택",
        "Description[nl]": "Een geluidsthema selecteren voor meldingen",
        "Description[nn]": "Vel lydtema for varslingar",
        "Description[pa]": "ਨੋਟੀਫਿਕੇਸ਼ਨ ਲਈ ਆਵਾਜ਼ ਥੀਮ ਚੁਣੋ",
        "Description[sk]": "Výber zvukovej témy pre oznámenia",
        "Description[sl]": "Izberite temo zvokov za obvestila",
        "Description[ta]": "அறிவிப்புகளுக்கான ஒலித்திட்டத்தை அமையுங்கள்",
        "Description[tr]": "Bildirimler için bir ses teması seçin",
        "Description[uk]": "Вибір звукової теми для сповіщень",
        "Description[x-test]": "xxSelect a Sound Theme for Notificationsxx",
        "Description[zh_CN]": "选择通知的声音主题",
        "Description[zh_TW]": "選擇通知用的音效主題",
        "Icon": "emblem-music-symbolic",
        "Name": "System Sounds",
        "Name[bg]": "Системни звуци",
        "Name[ca@valencia]": "Sons del sistema",
        "Name[ca]": "Sons del sistema",
        "Name[eo]": "Sistemsonoj",
        "Name[es]": "Sonidos del sistema",
        "Name[eu]": "Sistemaren soinuak",
        "Name[fr]": "Sons du système",
        "Name[ia]": "Sonos de systema",
        "Name[it]": "Suoni di sistema",
        "Name[ka]": "სისტემური ხმები",
        "Name[ko]": "시스템 소리",
        "Name[nl]": "Systeemgeluiden",
        "Name[nn]": "Systemlydar",
        "Name[pa]": "ਸਿਸਟਮ ਆਵਾਜ਼ਾਂ",
        "Name[sk]": "Systémové zvuky",
        "Name[sl]": "Sistemski zvoki",
        "Name[ta]": "கணினி ஒலிகள்",
        "Name[tr]": "Sistem Sesleri",
        "Name[uk]": "Системні звуки",
        "Name[x-test]": "xxSystem Soundsxx",
        "Name[zh_CN]": "系统声音",
        "Name[zh_TW]": "系統音效"
    },
    "X-KDE-System-Settings-Parent-Category": "appearance",
    "X-KDE-Weight": 70,
    "X-KDE_Keywords": "system sounds,sound theme,sound,sounds,alert,notification,bell"
}
